%YAML 1.1
%TAG !u! tag:unity3d.com,2011:
--- !u!114 &11400000
MonoBehaviour:
  m_ObjectHideFlags: 0
  m_CorrespondingSourceObject: {fileID: 0}
  m_PrefabInstance: {fileID: 0}
  m_PrefabAsset: {fileID: 0}
  m_GameObject: {fileID: 0}
  m_Enabled: 1
  m_EditorHideFlags: 0
  m_Script: {fileID: 11500000, guid: 299be44c87df5684b8a440fc2c5aac11, type: 3}
  m_Name: MineralMine
  m_EditorClassIdentifier: 
  Costs:
  - Type: 0
    Amount: 100
    ExpectedValue: 0
  - Type: 4
    Amount: 10
    ExpectedValue: 0
  Production:
  - Type: 4
    Amount: 1
    ExpectedValue: 0
  Maintenance:
  - Type: 3
    Amount: 1
    ExpectedValue: 0
  - Type: 0
    Amount: 1
    ExpectedValue: 0
