%YAML 1.1
%TAG !u! tag:unity3d.com,2011:
--- !u!114 &11400000
MonoBehaviour:
  m_ObjectHideFlags: 0
  m_CorrespondingSourceObject: {fileID: 0}
  m_PrefabInstance: {fileID: 0}
  m_PrefabAsset: {fileID: 0}
  m_GameObject: {fileID: 0}
  m_Enabled: 1
  m_EditorHideFlags: 0
  m_Script: {fileID: 11500000, guid: bd2e94cc48db61f42a21e85b5435de76, type: 3}
  m_Name: Mine
  m_EditorClassIdentifier: 
  BaseNeeds:
  - Type: 1
    Amount: 1
    ExpectedValue: 1
  EfficiencyNeeds:
  - Type: 3
    Amount: 1
    ExpectedValue: 1
  EfficiencyBonus: 3
  LuxuryNeeds: []
  Produces:
  - Type: 4
    Amount: 1
    ExpectedValue: 1
  Storage:
  - Type: 0
    Amount: 10
    ExpectedValue: 1
  Generosity: 0.1
