%YAML 1.1
%TAG !u! tag:unity3d.com,2011:
--- !u!114 &11400000
MonoBehaviour:
  m_ObjectHideFlags: 0
  m_CorrespondingSourceObject: {fileID: 0}
  m_PrefabInstance: {fileID: 0}
  m_PrefabAsset: {fileID: 0}
  m_GameObject: {fileID: 0}
  m_Enabled: 1
  m_EditorHideFlags: 0
  m_Script: {fileID: 11500000, guid: bd2e94cc48db61f42a21e85b5435de76, type: 3}
  m_Name: Player
  m_EditorClassIdentifier: 
  BaseNeeds: []
  EfficiencyNeeds: []
  EfficiencyBonus: 1
  LuxuryNeeds: []
  Produces: []
  Storage:
  - Type: 0
    Amount: 1000
    ExpectedValue: 1
  Generosity: 0
